{
    "Include": "./configs/common.silverbrick.preproduction.json",
    "FriendlyName": "PreProd - HttpStack - Silver Brick",
    "FirebaseServiceAccountName": "firebase-admin",
    "HttpServerPort": 3000,
    "JWTDbaSecret": "x/A?D(G+KbPeShVmYq3t6w9z$B&E)H@McQfTjWnZr4u7x!A%D*F-JaNdRgUkXp2s5v8y/B?E(H+KbPeShVmYq3t6w9z$C&F)J@NcQfTjWnZr4u7x!A%D*G-KaPdSgUkX",
    "JWTLiveSecret": "MbQeThWmZq4t7w!z%C*F-JaNcRfUjXn2r5u8x/A?D(G+KbPeSgVkYp3s6v9y$B&E)H@McQfTjWmZq4t7w!z%C*F-JaNdRgUkXp2r5u8x/A?D(G+KbPeShVmYq3t6w9y$",
    "JWTExpire": "10h",
    "SocketHandshakeTimeout": 20000
}
